<?xml version="1.0" encoding="utf-8"?>
<!-- Generator: Adobe Illustrator 22.0.1, SVG Export Plug-In . SVG Version: 6.00 Build 0)  -->
<svg version="1.1" id="Режим_изоляции"
	 xmlns="http://www.w3.org/2000/svg" xmlns:xlink="http://www.w3.org/1999/xlink" x="0px" y="0px" viewBox="0 0 51.9 51.9"
	 style="enable-background:new 0 0 51.9 51.9;" xml:space="preserve">
<style type="text/css">
	.st0{fill:#F0A5A9;}
</style>
<g>
	<path class="st0" d="M51.5,40.4c-1.9-3.6-8.9-7.7-8.9-7.7c-1.6-0.9-3.5-1-4.4,0.6c0,0-2.3,2.7-2.9,3.1c-2.6,1.8-5.1,1.7-7.6-0.8
		L22,29.9l-5.7-5.7c-2.5-2.5-2.5-4.9-0.7-7.6c0.4-0.6,3.1-2.9,3.1-2.9c1.6-0.9,1.5-2.8,0.6-4.4c0,0-4.1-7-7.7-8.9
		C10-0.4,8.2-0.1,6.9,1.2L4.4,3.7c-8,8-4.1,17.1,4,25.2l7.4,7.4l7.4,7.4c8,8,17.1,12,25.2,4l2.5-2.5C52,43.8,52.3,41.9,51.5,40.4z"
		/>
</g>
</svg>
