<?xml version="1.0" encoding="utf-8"?>
<!-- Generator: Adobe Illustrator 22.1.0, SVG Export Plug-In . SVG Version: 6.00 Build 0)  -->
<svg version="1.1" id="_x31_" xmlns="http://www.w3.org/2000/svg" xmlns:xlink="http://www.w3.org/1999/xlink" x="0px" y="0px"
	 viewBox="0 0 15.9 24.9" style="enable-background:new 0 0 15.9 24.9;" xml:space="preserve">
<style type="text/css">
	.st0{fill:#5B4E46;}
</style>
<g>
	<path class="st0" d="M10.7,13.9c1.5,1.2,3.2,2,5.2,2.2l-2.3-4c0,0-0.1-0.2-0.1-0.4c0-0.9,1.9-2,2.1-3.8c0.1-0.5,0-1-0.1-1.5
		c-0.2-0.8-0.6-1.4-1-2.1l0,0c0-0.1-0.1-0.1-0.1-0.2c-0.1-0.2-0.1-0.4-0.1-0.7c0.1-0.5,0.6-1,0.7-1.3c0,0,0-0.1,0-0.2
		s-0.1-0.1-0.2-0.1c0,0,0,0,0-0.1s0-0.1,0-0.1c0-0.1,0-0.1,0-0.1c0-0.1-0.2,0-0.2-0.1c0,0,0-0.2-0.1-0.2h-0.1l-0.1-0.1
		c0.1-0.1,0-0.4-0.1-0.4c-0.2,0.1-0.5,0.1-0.6,0l0,0c-0.3-0.1-0.4-0.3-0.4-0.3S12.9,0,12.1,0c-1,0-1.5,0.8-1.7,1.1l0,0
		c0,0.1-0.1,0.2-0.1,0.2S10.3,1,10,1l0,0C9.7,1,9.5,1.1,9.3,1.4c0,0,0,0,0,0.1S9.2,1.7,9.2,1.8c0,0.1,0,0.3,0.1,0.4
		C9.5,2.3,9.7,2.5,10,2.6c0.6,0.3,0.6,0.5,1.2,0.8c0.5,0.2,1.4,0.5,1.8,0.8c0,0,0.1,0,0.1,0.1l0.1,0.1l0,0c0.2,0.2,0.3,0.5,0.3,0.8
		c-0.4-0.7-1.2-1-1.2-1s-1.6-0.6-1.9-0.9C9.8,2.9,9.3,2.7,8.7,2.5C8.1,2.2,7.5,1.9,7,1.7C6.6,1.5,6.1,1.4,5.8,1.4
		c-0.1,0-0.1,0-0.1,0l0,0l0,0c0,0,0,0-0.1,0l0,0c-0.1,0-0.2,0-0.2,0c-0.7-0.2-0.8-0.2-1-0.2C4.2,1.1,4,1,4,1.1
		C3.8,1,3.6,0.9,3.6,1.1c0,0.1,0.1,0.1,0.1,0.1s0.1,0,0.2,0.1H3.8c-0.3,0-0.5,0-0.4,0.1c0,0,0.1,0.1,0.2,0.1c0.3,0.1,0.7,0,0.7,0
		s0,0,0.1,0s0.2,0.1,0.4,0.1C4.9,1.8,4.9,2,4.7,2C4.6,2,4.5,2,4.3,2C4.1,2,3.9,2.2,4,2.3l0.1,0.1h0.1c0.1,0,0.1,0,0.3,0
		c0.1,0,0.2,0,0.2,0s0,0,0.1,0h0.1c0.1,0,0.2,0,0.4,0C5.6,2.3,6,2.2,6,2.2s0,0,0.1,0l0,0l0,0c0.1,0,0.3,0.1,0.6,0.3
		C7.1,2.6,7.5,3,8.3,3.6c0.4,0.4,1,0.6,1.6,0.8C10.3,4.6,11,5,11.6,5.5c0.2,0.3,0.5,0.5,0.6,0.9C11.8,6,11.6,5.8,11,5.6
		c0.4,0.6,0.5,1.2,0.6,1.8c0,0,0,0.1,0,0.2c0.1,0.5,0.1,1,0.1,1.6c0,1.2,0.5,2.3,1.4,2.7c-1.9-0.7-2-2.8-2-2.8L6.7,5.9
		c0,0.6,0.1,1.4,0.4,2.3l0,0C6.8,8.1,6.6,8.1,6.4,8c-0.3-0.2-0.5-0.6-1-0.9c-0.9-0.5-1.6-0.6-2-0.7C2.9,6.3,2.9,5.9,2.7,5.6
		C2.6,5.5,2.4,5.5,2.4,5.5c-0.2,0-0.3,0-0.6-0.1s-0.6-0.2-1-0.2c-0.5,0-0.6,0.1-0.7,0.1C0,5.4,0,5.4,0,5.6s0.1,0.2,0.1,0.2
		c0.1,0,0.3,0.1,0.8,0.2s1.2,0.5,1.7,0.7C3,7,4,7.8,4.6,8.4c0.1,0.1,0.2,0.3,0.3,0.4c0.3,0.3,1.9,1.5,2.6,1.8
		c0.2,0.1-0.2-0.5-0.2-1.6c0.4,1.3,1.1,2.5,1.7,3.2c0.3,1.7,1,3.8,1,4.3c0,0.6-0.5,1.2-0.5,2c0,0.9,0.5,1.5,0.6,2.2
		c0.1,0.5,0.1,0.4-0.2,0.7c-0.1,0.1-0.3,0.3-0.3,0.5c0,0.4,0.2,0.6,0.4,0.9c0.4,0.8,0.2,1.9,0.2,1.9s0,0.3,0.3,0.1
		c0.3-0.3,0.4-1.6,0.5-2.5s0.2-2.5,0.2-3.9s0.8-2.9,0.4-3.2C11.3,14.9,10.9,14.3,10.7,13.9z"/>
</g>
</svg>
