<?xml version="1.0" encoding="utf-8"?>
<!-- Generator: Adobe Illustrator 22.0.1, SVG Export Plug-In . SVG Version: 6.00 Build 0)  -->
<svg version="1.1" id="Слой_1" xmlns="http://www.w3.org/2000/svg" xmlns:xlink="http://www.w3.org/1999/xlink" x="0px" y="0px"
	 viewBox="0 0 496 496" style="enable-background:new 0 0 496 496;" xml:space="preserve">
<style type="text/css">
	.st0{fill:#F0A5A9;}
	.st1{fill:#FFFFFF;}
	.st2{fill:#FF958A;}
	.st3{fill:#F5F7FA;}
	.st4{fill:#55433E;}
</style>
<g>
	<path class="st0" d="M488,248c0,132.5-107.5,240-240,240S8,380.5,8,248S115.5,8,248,8S488,115.5,488,248z"/>
	<path class="st1" d="M288.5,189l-16.5-5v-22.5c14.3-8.2,24-23.8,24-41.5V40l8.1-20.6C355.8,41.2,392,92.3,392,152
		c0,38.6-15.2,73.7-40,99.5v-19.7c0-14.2-9.3-26.6-22.8-30.7L288.5,189z"/>
	<path class="st1" d="M207.5,189l-40.7,12.2c-13.5,4.1-22.8,16.6-22.8,30.7v19.7c-24.8-25.8-40-61-40-99.5
		c0-76.8,60.2-139.6,135.9-143.8c2.6-0.2,5.4-0.2,8.1-0.2s5.4,0.1,8.1,0.2c16.9,0.9,33.1,4.8,48,11.1L296,40h-56.4
		C217.8,40,200,57.8,200,79.6V120c0,13.3,5.4,25.3,14.1,33.9c3,3,6.2,5.5,9.9,7.6V184L207.5,189z"/>
	<path class="st1" d="M472,456H288l-0.2-0.1c1.8-1.6,3.4-3.1,5-4.7l6.6-6.6c3-3,4.6-6.9,4.6-11c0-5.9-3.3-11.3-8.6-13.9L280,412v-68
		c0-8.8,7.2-16,16-16h56v-40l56,40h64c0.8,0,1.6,0.1,2.3,0.2c7.8,1.1,13.7,7.8,13.7,15.8v96C488,448.8,480.8,456,472,456z"/>
	<path class="st1" d="M288.5,189l-0.5,3l-8,40l-32-24l24-24L288.5,189z"/>
	<path class="st1" d="M248,208l-32,24l-8-40l-0.5-3l16.5-5L248,208z"/>
	<path class="st2" d="M352,231.8v19.7C325.8,279,289,296,248,296s-77.8-17-104-44.5v-19.7c0-14.2,9.3-26.6,22.8-30.7l40.7-12.2
		l0.5,3l8,40l32-24l32,24l8-40l0.5-3l40.7,12.2C342.7,205.2,352,217.7,352,231.8z"/>
	<path class="st1" d="M296,40v40c-4.9,9.8-15,16-25.9,16H200V79.6c0-21.8,17.8-39.6,39.6-39.6H296z"/>
	<path class="st3" d="M270.1,96H200v24c0,13.3,5.4,25.3,14.1,33.9c3,3,6.2,5.5,9.9,7.6V184l24,24l24-24v-22.5
		c14.3-8.2,24-23.8,24-41.5V80C291.1,89.8,281,96,270.1,96z"/>
	<path class="st2" d="M9.4,273.7c0-0.1-0.1-0.2,0-0.2c3.6-24.2,14.2-47,30.7-65.3L88,296l0.6,1.4l-2.7,1.1
		c-8.4,3.4-13.8,11.4-13.8,20.4c0,5.8,2.3,11.4,6.5,15.6l83,83c4.2,4.2,9.8,6.5,15.6,6.5c9,0,17-5.4,20.4-13.8l1.1-2.7l1.4,0.6
		l87.8,47.9c-10.6,9.5-22.8,17.1-35.8,22.6c-15,6.2-31.4,9.5-48,9.5c-33.3,0-65.2-13.2-88.8-36.8l-70.4-70.4
		C33,369,23.8,355.1,17.5,340C11.3,325,8,308.6,8,292C8,285.8,8.5,279.8,9.4,273.7z"/>
	<path class="st1" d="M280,412l15.4,7.7c5.3,2.6,8.6,8,8.6,13.9c0,4.1-1.6,8-4.6,11l-6.6,6.6c-1.6,1.6-3.2,3.1-5,4.7L200,408
		l-1.4-0.6l5.4-13.7c2.4-5.9,8.1-9.8,14.4-9.8h1.8c2.4,0,4.8,0.6,7,1.6L280,412z"/>
	<path class="st1" d="M112,275.7v1.8c0,6.3-3.8,12-9.8,14.4l-13.7,5.4L88,296l-47.9-87.8c1.5-1.7,3.1-3.4,4.7-5l6.6-6.6
		c3-3,6.9-4.6,11-4.6c5.9,0,11.3,3.3,13.9,8.6l34.1,68.2C111.4,270.9,112,273.3,112,275.7z"/>
	<g>
		<path class="st4" d="M416,416h16v16h-16V416z"/>
		<path class="st4" d="M384,416h16v16h-16V416z"/>
		<path class="st4" d="M352,416h16v16h-16V416z"/>
		<path class="st4" d="M312,384h144v16H312V384z"/>
		<path class="st4" d="M384,352h72v16h-72V352z"/>
		<path class="st4" d="M312,352h56v16h-56V352z"/>
		<path class="st4" d="M484.1,323.4c7.8-24.3,11.9-49.6,11.9-75.4C496,111.3,384.8,0,248,0S0,111.3,0,248c0,8.6,0.5,17.3,1.4,25.9
			c-0.8,6-1.4,12-1.4,18.1c0,35.7,13.9,69.2,39.1,94.4l70.5,70.5c25.2,25.2,58.7,39.1,94.4,39.1c32.1,0,62.4-11.4,86.6-32H472
			c13.2,0,24-10.8,24-24v-96C496,335.2,491.2,327.6,484.1,323.4z M384,152c0,28.7-9,55.3-24.2,77.3c-1.1-16.7-12.1-30.9-28.3-35.8
			L280,178v-12.2c14.5-10.1,24-26.9,24-45.9V32h-64.4C213.4,32,192,53.4,192,79.6V120c0,19,9.5,35.8,24,45.9V178l-51.5,15.4
			c-16.2,4.9-27.3,19.1-28.3,35.8C121,207.3,112,180.7,112,152c0-75,61-136,136-136S384,77,384,152z M288,77.6
			C284.2,84,277.6,88,270.1,88H208v-8.4c0-17.4,14.2-31.6,31.6-31.6H288V77.6z M208,104h62.1c6.4,0,12.5-1.7,17.9-4.7V120
			c0,22.1-17.9,40-40,40s-40-17.9-40-40V104z M274.3,193l5.1,1.5l-4.7,23.4l-14.5-10.8L274.3,193z M248,176c5.6,0,10.9-0.8,16-2.4v7
			l-16,16l-16-16v-7C237.1,175.2,242.4,176,248,176z M221.7,193l14.1,14.1L221.3,218l-4.7-23.4L221.7,193z M201.3,199.2l9.4,46.8
			l37.4-28l37.4,28l9.4-46.8l32.2,9.7c10.2,3.1,17.1,12.3,17.1,23v16.4c-24.6,24.6-58.6,39.8-96,39.8s-71.4-15.2-96-39.8v-16.4
			c0-10.7,6.9-19.9,17.1-23L201.3,199.2z M145.9,39.8C115.3,67.6,96,107.5,96,152c0,83.8,68.2,152,152,152s152-68.2,152-152
			c0-44.5-19.3-84.4-49.9-112.2C427,77.6,480,156.7,480,248c0,24.6-4,48.8-11.6,72h-57.9L344,272.5V320h-48c-13.2,0-24,10.8-24,24
			v55.1l-41.2-20.6c-3.3-1.6-6.9-2.5-10.5-2.5h-1.8c-9.7,0-18.2,5.8-21.8,14.8l-6.6,16.4c-2.1,5.3-7.3,8.8-13,8.8
			c-3.7,0-7.3-1.5-9.9-4.1l-83.1-83.1c-2.6-2.6-4.1-6.2-4.1-9.9c0-5.8,3.5-10.8,8.8-13l16.4-6.6c9-3.6,14.8-12.2,14.8-21.8v-1.8
			c0-3.6-0.8-7.2-2.5-10.5L83.4,197c-4-8-12.1-13-21-13c-6.2,0-12.2,2.5-16.6,6.9l-6.7,6.7c-8.8,8.8-16.2,18.7-22.1,29.3
			C24.5,144.6,75,74.6,145.9,39.8z M293.8,438.9l-6.7,6.7c-0.2,0.2-0.4,0.3-0.6,0.5l-77.8-42.4l2.8-7c1.1-2.9,3.9-4.7,7-4.7h1.8
			c1.2,0,2.3,0.3,3.4,0.8l68.2,34.1c2.6,1.3,4.1,3.8,4.1,6.7C296,435.6,295.2,437.5,293.8,438.9z M92.3,287.2l-42.4-77.8
			c0.2-0.2,0.3-0.4,0.5-0.6l6.7-6.7c1.4-1.4,3.3-2.2,5.3-2.2c2.9,0,5.4,1.6,6.7,4.1l34.1,68.1c0.5,1.1,0.8,2.2,0.8,3.4v1.8
			c0,3.1-1.8,5.8-4.7,7L92.3,287.2z M120.9,445.6l-70.5-70.5C28.2,352.9,16,323.4,16,292c0-25.3,8.1-49.4,22.8-69.4l38.8,71.2
			c-8.4,5.5-13.7,14.8-13.7,25.1c0,8,3.1,15.5,8.8,21.2l83.1,83.1c5.7,5.7,13.2,8.8,21.2,8.8c10.3,0,19.6-5.2,25.1-13.7l71.2,38.8
			c-20,14.7-44.1,22.8-69.4,22.8C172.6,480,143.1,467.8,120.9,445.6z M480,440c0,4.4-3.6,8-8,8H306.9c3.2-4.1,5.1-9.2,5.1-14.4
			c0-8.9-5-17-13-21l-11-5.5V344c0-4.4,3.6-8,8-8h64v-32.5l45.4,32.5H472c4.4,0,8,3.6,8,8V440z"/>
	</g>
</g>
</svg>
